…
```r
dunn_test_results <- dunn_test(third_test_data, value~timepoint, p.adjust.method = "bonferroni") %>%
  write_csv(here("Saved Files", "dunn_test_results.csv"))

dunn_test_results
```

```
## # A tibble: 66 × 9
##    .y.   group1        group2    n1    n2 statistic       p   p.adj p.adj.signif
##  * <chr> <chr>         <chr>  <int> <int>     <dbl>   <dbl>   <dbl> <chr>       
##  1 value T=0 500ppm FY T=0 5…    34    34    -0.460 6.45e-1 1       ns          
##  2 value T=0 500ppm FY T=0 5…    34    34    -0.719 4.72e-1 1       ns          
##  3 value T=0 500ppm FY T=0 5…    34    34    -3.40  6.77e-4 0.0447  *           
##  4 value T=0 500ppm FY T=13 …    34    34    -0.101 9.19e-1 1       ns          
##  5 value T=0 500ppm FY T=13 …    34    34    -1.19  2.36e-1 1       ns          
##  6 value T=0 500ppm FY T=13 …    34    34    -1.50  1.35e-1 1       ns          
##  7 value T=0 500ppm FY T=13 …    34    34    -4.17  3.07e-5 0.00203 **          
##  8 value T=0 500ppm FY T=E 5…    34    34     0.167 8.68e-1 1       ns          
##  9 value T=0 500ppm FY T=E 5…    34    34    -2.04  4.14e-2 1       ns          
## 10 value T=0 500ppm FY T=E 5…    34    34    -1.78  7.54e-2 1       ns          
## # ℹ 56 more rows
```
