…
```r
voc_data  
```

```
## # A tibble: 168 × 5
##    oil_concentration fertilized sample_id parameter  measure
##    <chr>             <chr>      <chr>     <chr>        <dbl>
##  1 5                 y          5FT0      Benz          0   
##  2 5                 y          5FT0      Ebenz         3.21
##  3 5                 y          5FT0      Tol           8.69
##  4 5                 y          5FT0      mXyl          6.15
##  5 5                 y          5FT0      pXyl          6.15
##  6 5                 y          5FT0      IPBenz        1.09
##  7 5                 y          5FT0      oXyl          8.00
##  8 5                 y          5FT0      nPBenz        4.93
##  9 5                 y          5FT0      x135TMBenz   10.2 
## 10 5                 y          5FT0      x124TMBenz   41.9 
## # ℹ 158 more rows
```
…
