…
```r
alkane_data  
```

```
## # A tibble: 324 × 5
##    oil_concentration fertilized sample_id parameter measure
##    <chr>             <chr>      <chr>     <chr>       <dbl>
##  1 5                 y          5FT0      nC11         0   
##  2 5                 y          5FT0      nC12         5.00
##  3 5                 y          5FT0      nC13         7.55
##  4 5                 y          5FT0      nC14         6.10
##  5 5                 y          5FT0      nC15        10.3 
##  6 5                 y          5FT0      nC16        13.4 
##  7 5                 y          5FT0      Pristane     5.09
##  8 5                 y          5FT0      nC17         6.46
##  9 5                 y          5FT0      Phytane      3.88
## 10 5                 y          5FT0      nC18         9.71
## # ℹ 314 more rows
```
…
