…
```r
ab_aca_data  
```

```
## # A tibble: 300 × 5
##    oil_concentration fertilized sample_id parameter measure
##    <chr>             <chr>      <chr>     <chr>       <dbl>
##  1 5                 y          5FT0      nC6CH       14.3 
##  2 5                 y          5FT0      nC7CH       20.3 
##  3 5                 y          5FT0      nC8CH       21.1 
##  4 5                 y          5FT0      nC9CH       15.2 
##  5 5                 y          5FT0      nC10CH      16.0 
##  6 5                 y          5FT0      nC11CH       4.59
##  7 5                 y          5FT0      nC12CH       2.07
##  8 5                 y          5FT0      nC13CH       3.21
##  9 5                 y          5FT0      nC14CH       3.23
## 10 5                 y          5FT0      nC4B        26.6 
## # ℹ 290 more rows
```
…
