…
```r
dunn_test_results <- dunn_test(third_test_data, value~timepoint, p.adjust.method = "bonferroni") %>%
  write_csv(here("Saved Files", "dunn_test_results.csv"))

dunn_test_results
```

```
## # A tibble: 66 × 9
##    .y.   group1       group2    n1    n2 statistic        p   p.adj p.adj.signif
##  * <chr> <chr>        <chr>  <int> <int>     <dbl>    <dbl>   <dbl> <chr>       
##  1 value T=0 500ppm … T=0 5…    14    14    -2.17  2.98e- 2 1   e+0 ns          
##  2 value T=0 500ppm … T=0 5…    14    14    -2.38  1.75e- 2 1   e+0 ns          
##  3 value T=0 500ppm … T=0 5…    14    14    -5.83  5.62e- 9 3.71e-7 ****        
##  4 value T=0 500ppm … T=13 …    14    14    -0.103 9.18e- 1 1   e+0 ns          
##  5 value T=0 500ppm … T=13 …    14    14    -2.69  7.23e- 3 4.77e-1 ns          
##  6 value T=0 500ppm … T=13 …    14    14    -2.81  5.00e- 3 3.30e-1 ns          
##  7 value T=0 500ppm … T=13 …    14    14    -6.28  3.29e-10 2.17e-8 ****        
##  8 value T=0 500ppm … T=E 5…    14    14    -0.508 6.12e- 1 1   e+0 ns          
##  9 value T=0 500ppm … T=E 5…    14    14    -3.17  1.51e- 3 9.98e-2 ns          
## 10 value T=0 500ppm … T=E 5…    14    14    -5.31  1.10e- 7 7.23e-6 ****        
## # ℹ 56 more rows
```
