…
```r
dunn_test_results <- dunn_test(third_test_data, value~timepoint, p.adjust.method = "bonferroni") %>%
  write_csv(here("Saved Files", "dunn_test_results.csv"))

dunn_test_results
```

```
## # A tibble: 66 × 9
##    .y.   group1        group2    n1    n2 statistic       p   p.adj p.adj.signif
##  * <chr> <chr>         <chr>  <int> <int>     <dbl>   <dbl>   <dbl> <chr>       
##  1 value T=0 500ppm FY T=0 5…    27    27    -2.70  7.03e-3 4.64e-1 ns          
##  2 value T=0 500ppm FY T=0 5…    27    27    -1.87  6.11e-2 1   e+0 ns          
##  3 value T=0 500ppm FY T=0 5…    27    27    -4.36  1.30e-5 8.59e-4 ***         
##  4 value T=0 500ppm FY T=13 …    27    27     0.307 7.59e-1 1   e+0 ns          
##  5 value T=0 500ppm FY T=13 …    27    27    -1.16  2.47e-1 1   e+0 ns          
##  6 value T=0 500ppm FY T=13 …    27    27    -1.63  1.03e-1 1   e+0 ns          
##  7 value T=0 500ppm FY T=13 …    27    27    -5.80  6.67e-9 4.40e-7 ****        
##  8 value T=0 500ppm FY T=E 5…    27    27     0.990 3.22e-1 1   e+0 ns          
##  9 value T=0 500ppm FY T=E 5…    27    27    -1.46  1.45e-1 1   e+0 ns          
## 10 value T=0 500ppm FY T=E 5…    27    27    -3.06  2.21e-3 1.46e-1 ns          
## # ℹ 56 more rows
```
